{
  "project_info": {
    "project_number": "177694024756",
    "project_id": "chat-app-peter",
    "storage_bucket": "chat-app-peter.appspot.com"
  },
  "client": [
    {
      "client_info": {
        "mobilesdk_app_id": "1:177694024756:android:0c72efd289b2f88ff39661",
        "android_client_info": {
          "package_name": "com.example.chat_app_marijana"
        }
      },
      "oauth_client": [
        {
          "client_id": "177694024756-lj5h2c4ur4jgf0544odm2mpdcoupnk4g.apps.googleusercontent.com",
          "client_type": 3
        }
      ],
      "api_key": [
        {
          "current_key": "AIzaSyAi5UnhDZ14yFj0Dq0FgJNGGn3w4r-P0rY"
        }
      ],
      "services": {
        "appinvite_service": {
          "other_platform_oauth_client": [
            {
              "client_id": "177694024756-lj5h2c4ur4jgf0544odm2mpdcoupnk4g.apps.googleusercontent.com",
              "client_type": 3
            }
          ]
        }
      }
    }
  ],
  "configuration_version": "1"
}